[
  {
    "id": 1,
    "email": "dev1@markdigx.com.br",
    "password": "dev1"
  },
  {
    "id": 2,
    "email": "dev2@markdigx.com.br",
    "password": "dev2"
  },
  {
    "id": 3,
    "email": "dev3@markdigx.com.br",
    "password": "dev3"
  }
]
